{
  "table": [
    {
      "id": 4,
      "title": "Метеорологічна історія",
      "text": "16 серпня біля західного узбережжя Африки виникла тропічна хвиля. Того дня Національний центр ураганів США (NHC) відзначив можливість, що система в кінцевому підсумку може перерости в тропічний циклон, а імовірність того, що це станеться у п'ятиденний термін, оцінювалася приблизно в 20 %[1]. Через добу NHC оцінював імовірність того, що хвиля протягом п'яти днів переросте у тропічний циклон, вже у 50 %[2], а 18 серпня збільшив імовірність до 90 % . У межах хвилі, з дощовими смугами, розташованими поблизу центру, що були ознаками тропічного циклону. 20 серпня супутникові знімки показали, що у системі утворився визначений центр циркуляції низького тиску (LLCC) з конвекційною системою навколо нього. Як результат, NHC почав видавати рекомендації щодо тропічної депресії тринадцять, коли вона розташовувалася приблизно за 1035 миль (1670 км) на схід-південний схід від Північних Підвітряних островів[3].",
      "createDate": "Sat Feb 24 2024 23:44:24 GMT+0200 (Eastern European Standard Time)"
    },
    {
      "id": 9,
      "title": "Сполучені Штати",
      "text": "Урагани «Марко» та «Лора» загрожували великій частині нафтових платформ, розташованих у Мексиканській затоці. До 23 серпня було зупинено приблизно 58 відсотків видобутку нафти та 45 відсотків видобутку природного газу; це включало евакуацію 114 платформ.[30] До 25 серпня було евакуйовано 299 з 643 платформ і 27 з 28 мобільних бурових установок.[31] Для цього шторму було видано сім годин торнадо. До них належали прибережні води, а також Техас, Луїзіана, Міссісіпі, Арканзас, Теннессі, Алабама та Кентуккі.[32][33][34][35][36][37][38] Співробітники офісу NWS у Лейк-Чарльзі також були евакуйовані; NWS Brownsville видає попередження для їхнього регіону. Коли Лора наближалася до берега, для Луїзіани та Техасу було оголошено попередження про сильний вітер.[39][40][41]\n\n",
      "createDate": "Fri Mar 01 2024 00:05:18 GMT+0200 (Eastern European Standard Time)"
    },
    {
      "id": 12,
      "createDate": "Fri Mar 01 2024 10:05:13 GMT+0200 (Eastern European Standard Time)",
      "title": "Правопис",
      "text": "У давньоруських пам'ятках назва міста записувалася як Кыѥвъ, де ы передавала праслов'янський звук *y, а ѥ — йотований звук [e] («є»). Подібне написання тривалий час залишалося у літописах. Надалі, після припинення дії закону другої палаталізації та злиття звука [ɨ] з [і] в новий голосний передньо-середнього ряду [ɪ] з'являються написання Києвъ, Кіевъ, а після утворення «нового ятя»[20] — і «Кыѣвъ»[21], «Киѣвъ»[22], «Кіѣвъ»[23]. З упорядкуванням українського правопису XIX ст., коли за [ɪ] закріплюється літера и, а за [ji] з йотованого «нового ятя» — ї, написання набуває сучасної форми — Київ.\n\n"
    },
    {
      "id": 13,
      "title": "Київ",
      "text": "Ки́їв — столиця та найбільше місто України. Розташований у середній течії Дніпра, у північній Наддніпрянщині. Політичний, соціально-економічний, транспортний, освітньо-науковий, історичний, культурний та духовний центр України. У системі адміністративно-територіального устрою України Київ має спеціальний статус, визначений Конституцією, і не входить до складу жодної області, хоча і є адміністративним центром Київської області[8]. Місце розташування центральних органів влади України, іноземних місій, штаб-квартир більшості підприємств і громадських об'єднань, що працюють в Україні.\n\nЗа «Повістю временних літ», Київ заснував полянський князь Кий зі своїми братами Щеком і Хоривом та сестрою Либіддю. Згідно з археологічними даними та писемними джерелами, початок безперервного розвитку Києва датується 2-ю половиною V ст. — 1-ю половиною VI ст.; осередком розширення Києва була гора Замкова[2]. Протягом своєї історії місто було столицею полян, Русі[a] і України[b], а також адміністративним центром однойменних князівства, землі, воєводства, повіта, полку, намісництва, губернії, округи, района, генеральної округи, і зокрема православної митрополії, генерал-губернаторства і військової округи.\n\nОдин із найстаріших історичних центрів Східної Європи та християнства — Софійський собор та Києво-Печерська лавра — внесені до списку Світової спадщини ЮНЕСКО.",
      "createDate": "Fri Mar 01 2024 10:14:50 GMT+0200 (Eastern European Standard Time)"
    },
    {
      "id": 15,
      "title": "Гідрографія",
      "text": "Основною рисою Києва є наявність великої гідрографічної «осі» — річки Дніпро, яка поділяє територію міста на дві частини — правобережну і лівобережну. Дніпро — найбільша в Києві, третя за довжиною і площею басейну річка Європи після Волги та Дунаю. Після будівництва каскаду дніпровських водосховищ гідрологічний режим Дніпра (зокрема і в межах Києва) змінився. Так, підпір Канівського водосховища сягає течії Дніпра в районі моста Метро на території Києва. Поблизу Києва (на північ) розташовано Київське водосховище на Дніпрі.\nТериторія Києва також дренується численними постійними та тимчасовими водотоками, які утворюють гідрографічну мережу з близько 70 малих річок, що зрештою впадають у Дніпро. Структура гідрографічної мережі малих річок Києва визначається басейновими угрупованнями водних об'єктів.\nГідрографія правого берега: центральна частина — басейн річки Либідь з її притоками, а також басейн річки Почайна (див. Опечень) з головними притоками Глибочиця та Сирець; північна та західна частини міста розташовані в басейні річки Ірпінь, а точніше її приток — річок Нивка та Горенка; південна частина міста — у басейні річки Віта.\nГідрографія лівого берега: басейн річки Дарниця з її притоками.",
      "createDate": "Fri Mar 01 2024 11:14:21 GMT+0200 (Eastern European Standard Time)"
    },
    {
      "id": 16,
      "title": "Екологія",
      "text": "Ліси, парки та сади становлять більш ніж половину площі Києва з майже 80 000 гектарів[33]. На одного киянина (станом на 2004 рік) припадало 22,1 м² зелених насаджень (за міжнародними нормами, цей показник має бути не меншим за 20 м²). Питаннями екології Києва опікується Державне Управління охорони навколишнього природного середовища у м. Києві, яке з 2006 року очолює Прогнімак Олександр Володимирович.\n\nУ лісопарках міста гніздиться чимало видів диких птахів, зокрема хижаків та таких, що гніздяться в дуплах, мешкають різновиди кажанів. Більшість цих видів занесено до Червоної книги України. Наприклад, урочище «Лиса гора» — фактично острів посеред міської забудови Києва. Тут протягом багатьох років розташовувався військовий об'єкт, завдяки чому (за даними співробітників Інституту зоології) до останнього часу збереглися види, занесені до Червоної книги — аполлон, махаон, Синявець Мелеагр, жук-олень, бджола-тесляр, мала вечірниця. У межах міста трапляються поселення бобрів.",
      "createDate": "Fri Mar 01 2024 11:14:48 GMT+0200 (Eastern European Standard Time)"
    },
    {
      "id": 17,
      "title": "hello hello",
      "text": "vika maks",
      "createDate": "Fri Mar 01 2024 11:20:01 GMT+0200 (Eastern European Standard Time)"
    }
  ],
  "id": 18,
  "schema": {
    "id": "Number",
    "title": "String",
    "text": "String",
    "createDate": "Date"
  }
}